<svg width="25" height="31" viewBox="0 0 25 31" fill="none" xmlns="http://www.w3.org/2000/svg">
<path d="M22.8441 0L16.1539 14.1988H8.45007L7.15759 16.9447L0.538086 31H2.31769L8.93722 16.9447H16.6449L17.9374 14.1988L24.6237 0H22.8441Z" fill="white"/>
</svg>
